%YAML 1.1
%TAG !u! tag:unity3d.com,2011:
--- !u!1 &5677375835742983822
GameObject:
  m_ObjectHideFlags: 0
  m_CorrespondingSourceObject: {fileID: 0}
  m_PrefabInstance: {fileID: 0}
  m_PrefabAsset: {fileID: 0}
  serializedVersion: 6
  m_Component:
  - component: {fileID: 5677375835743406766}
  - component: {fileID: 5677375836134637399}
  m_Layer: 0
  m_Name: roadTile_162
  m_TagString: Untagged
  m_Icon: {fileID: 0}
  m_NavMeshLayer: 0
  m_StaticEditorFlags: 0
  m_IsActive: 1
--- !u!4 &5677375835743406766
Transform:
  m_ObjectHideFlags: 0
  m_CorrespondingSourceObject: {fileID: 0}
  m_PrefabInstance: {fileID: 0}
  m_PrefabAsset: {fileID: 0}
  m_GameObject: {fileID: 5677375835742983822}
  m_LocalRotation: {x: 0, y: 0, z: 0, w: 1}
  m_LocalPosition: {x: 0, y: 0, z: 0}
  m_LocalScale: {x: 1, y: 1, z: 1}
  m_Children:
  - {fileID: 1189627817186462963}
  m_Father: {fileID: 0}
  m_RootOrder: 0
  m_LocalEulerAnglesHint: {x: 0, y: 0, z: 0}
--- !u!114 &5677375836134637399
MonoBehaviour:
  m_ObjectHideFlags: 0
  m_CorrespondingSourceObject: {fileID: 0}
  m_PrefabInstance: {fileID: 0}
  m_PrefabAsset: {fileID: 0}
  m_GameObject: {fileID: 5677375835742983822}
  m_Enabled: 1
  m_EditorHideFlags: 0
  m_Script: {fileID: 11500000, guid: 8757f4dec0790864cb685e579f92e258, type: 3}
  m_Name: 
  m_EditorClassIdentifier: 
  _probability: 1
  _faceInfo:
    Forward: 0
    Right: 1
    Backward: 0
    Left: 1
  _rotations: 0000000001000000
--- !u!1001 &1189627817186596465
PrefabInstance:
  m_ObjectHideFlags: 0
  serializedVersion: 2
  m_Modification:
    m_TransformParent: {fileID: 5677375835743406766}
    m_Modifications:
    - target: {fileID: 100002, guid: d85ff23cc0581754692c9166f1be2ec2, type: 3}
      propertyPath: m_Name
      value: roadTile_162
      objectReference: {fileID: 0}
    - target: {fileID: 400002, guid: d85ff23cc0581754692c9166f1be2ec2, type: 3}
      propertyPath: m_LocalPosition.x
      value: 0
      objectReference: {fileID: 0}
    - target: {fileID: 400002, guid: d85ff23cc0581754692c9166f1be2ec2, type: 3}
      propertyPath: m_LocalPosition.y
      value: 0
      objectReference: {fileID: 0}
    - target: {fileID: 400002, guid: d85ff23cc0581754692c9166f1be2ec2, type: 3}
      propertyPath: m_LocalPosition.z
      value: 0
      objectReference: {fileID: 0}
    - target: {fileID: 400002, guid: d85ff23cc0581754692c9166f1be2ec2, type: 3}
      propertyPath: m_LocalRotation.x
      value: -0
      objectReference: {fileID: 0}
    - target: {fileID: 400002, guid: d85ff23cc0581754692c9166f1be2ec2, type: 3}
      propertyPath: m_LocalRotation.y
      value: -0
      objectReference: {fileID: 0}
    - target: {fileID: 400002, guid: d85ff23cc0581754692c9166f1be2ec2, type: 3}
      propertyPath: m_LocalRotation.z
      value: -0
      objectReference: {fileID: 0}
    - target: {fileID: 400002, guid: d85ff23cc0581754692c9166f1be2ec2, type: 3}
      propertyPath: m_LocalRotation.w
      value: 1
      objectReference: {fileID: 0}
    - target: {fileID: 400002, guid: d85ff23cc0581754692c9166f1be2ec2, type: 3}
      propertyPath: m_RootOrder
      value: 0
      objectReference: {fileID: 0}
    - target: {fileID: 400002, guid: d85ff23cc0581754692c9166f1be2ec2, type: 3}
      propertyPath: m_LocalEulerAnglesHint.x
      value: 0
      objectReference: {fileID: 0}
    - target: {fileID: 400002, guid: d85ff23cc0581754692c9166f1be2ec2, type: 3}
      propertyPath: m_LocalEulerAnglesHint.y
      value: 0
      objectReference: {fileID: 0}
    - target: {fileID: 400002, guid: d85ff23cc0581754692c9166f1be2ec2, type: 3}
      propertyPath: m_LocalEulerAnglesHint.z
      value: 0
      objectReference: {fileID: 0}
    m_RemovedComponents: []
  m_SourcePrefab: {fileID: 100100000, guid: d85ff23cc0581754692c9166f1be2ec2, type: 3}
--- !u!4 &1189627817186462963 stripped
Transform:
  m_CorrespondingSourceObject: {fileID: 400002, guid: d85ff23cc0581754692c9166f1be2ec2,
    type: 3}
  m_PrefabInstance: {fileID: 1189627817186596465}
  m_PrefabAsset: {fileID: 0}
